{
    "comment": "",
    "dataType": "Number",
    "fieldType": "Normal",
    "id": 6,
    "name": "id",
    "autoEnter": {
        "type": "SerialNumber",
        "serialNumber": {
            "generate": "OnCreation",
            "increment": 1
        }
    },
    "storage": {
        "autoIndex": false,
        "index": "",
        "global": false,
        "maxRepetitions": 1,
        "languageReference": {
            "id": 21,
            "name": "English"
        }
    },
    "validation": {
        "allowOverride": false,
        "existing": false,
        "notEmpty": false,
        "type": "OnlyDuringDataEntry",
        "unique": true
    }
}