{
    "comment": "",
    "dataType": "Text",
    "fieldType": "Normal",
    "id": 8,
    "name": "name",
    "autoEnter": {},
    "storage": {
        "autoIndex": true,
        "index": "",
        "global": false,
        "maxRepetitions": 1,
        "languageReference": {
            "id": 21,
            "name": "English"
        }
    },
    "validation": {
        "allowOverride": false,
        "existing": false,
        "notEmpty": true,
        "type": "OnlyDuringDataEntry",
        "unique": true
    }
}