{
    "id": 1065095,
    "viewState": "Full",
    "name": "auth_group_permissions",
    "type": "Local",
    "baseTableReference": {
        "name": "auth_group_permissions",
        "id": 135
    },
    "coordRect": {
        "top": 0,
        "left": 0,
        "bottom": 0,
        "right": 0
    },
    "color": {
        "red": 119,
        "green": 119,
        "blue": 119,
        "alpha": 1
    }
}